{
  "formatVersion": 1,
  "database": {
    "version": 1,
    "identityHash": "9004461bb8edf8b97cf3d294f6967eac",
    "entities": [
      {
        "tableName": "t_repositorySyncHistory",
        "createSql": "CREATE TABLE IF NOT EXISTS `${TABLE_NAME}` (`user` TEXT NOT NULL, `company` TEXT NOT NULL, `channel` TEXT NOT NULL, `lastSync` TEXT NOT NULL, `repository` TEXT NOT NULL, `warehouse` TEXT, PRIMARY KEY(`user`, `company`))",
        "fields": [
          {
            "fieldPath": "user",
            "columnName": "user",
            "affinity": "TEXT",
            "notNull": true
          },
          {
            "fieldPath": "company",
            "columnName": "company",
            "affinity": "TEXT",
            "notNull": true
          },
          {
            "fieldPath": "channel",
            "columnName": "channel",
            "affinity": "TEXT",
            "notNull": true
          },
          {
            "fieldPath": "lastSync",
            "columnName": "lastSync",
            "affinity": "TEXT",
            "notNull": true
          },
          {
            "fieldPath": "repository",
            "columnName": "repository",
            "affinity": "TEXT",
            "notNull": true
          },
          {
            "fieldPath": "warehouse",
            "columnName": "warehouse",
            "affinity": "TEXT",
            "notNull": false
          }
        ],
        "primaryKey": {
          "columnNames": [
            "user",
            "company"
          ],
          "autoGenerate": false
        },
        "indices": [],
        "foreignKeys": []
      },
      {
        "tableName": "t_object",
        "createSql": "CREATE TABLE IF NOT EXISTS `${TABLE_NAME}` (`code` TEXT NOT NULL, `description` TEXT NOT NULL, `id` TEXT NOT NULL, `name` TEXT NOT NULL, PRIMARY KEY(`code`))",
        "fields": [
          {
            "fieldPath": "code",
            "columnName": "code",
            "affinity": "TEXT",
            "notNull": true
          },
          {
            "fieldPath": "description",
            "columnName": "description",
            "affinity": "TEXT",
            "notNull": true
          },
          {
            "fieldPath": "id",
            "columnName": "id",
            "affinity": "TEXT",
            "notNull": true
          },
          {
            "fieldPath": "name",
            "columnName": "name",
            "affinity": "TEXT",
            "notNull": true
          }
        ],
        "primaryKey": {
          "columnNames": [
            "code"
          ],
          "autoGenerate": false
        },
        "indices": [],
        "foreignKeys": []
      },
      {
        "tableName": "t_saleOrder",
        "createSql": "CREATE TABLE IF NOT EXISTS `${TABLE_NAME}` (`internalId` INTEGER PRIMARY KEY AUTOINCREMENT, `company` TEXT NOT NULL, `internalStatus` INTEGER NOT NULL, `internalReceiptNumber` TEXT NOT NULL, `additionalData` TEXT, `bonus` REAL, `businessPartnerCode` TEXT, `businessPartnerName` TEXT, `code` TEXT, `codeERP` TEXT, `comment` TEXT, `createDate` TEXT, `createUser` TEXT, `deliveryDate` TEXT, `detail` TEXT, `detraction` INTEGER, `discount` REAL, `discountPercentage` REAL, `docCurrency` TEXT, `docDate` TEXT, `docNum` INTEGER, `documentInstallments` TEXT, `docYear` INTEGER, `emailSalePerson` TEXT, `erpDocNum` INTEGER, `erpSerialNumber` INTEGER, `icbper` REAL, `isDispatch` INTEGER, `migration` TEXT, `migrationDate` TEXT, `migrationStatus` INTEGER, `nameSalePerson` TEXT, `nif` TEXT, `payAddress` TEXT, `payAddressName` TEXT, `paymentConditionName` TEXT, `paymentReceiptNumber` TEXT, `paymentReceiptType` TEXT, `pickUps` TEXT, `pickingStatus` TEXT, `plateNumber` TEXT, `reservationInvoice` TEXT, `saleType` INTEGER, `sampleCode` TEXT, `samples` TEXT, `shipAddress` TEXT, `shipAddressName` TEXT, `status` INTEGER, `store` TEXT, `storeAddress` TEXT, `subtotal` REAL, `subtotalDiscount` REAL, `taxAmount` REAL, `total` REAL, `totalDetraction` REAL, `transactionalCode` TEXT, `u_VS_AFEDET` TEXT, `u_VS_CODSER` TEXT, `u_VS_MONDET` REAL, `u_VS_PORDET` REAL, `ubication` TEXT, `ubicationEntry` INTEGER, `updateDate` TEXT, `updateUser` TEXT, `warehouse` TEXT)",
        "fields": [
          {
            "fieldPath": "internalId",
            "columnName": "internalId",
            "affinity": "INTEGER",
            "notNull": false
          },
          {
            "fieldPath": "company",
            "columnName": "company",
            "affinity": "TEXT",
            "notNull": true
          },
          {
            "fieldPath": "internalStatus",
            "columnName": "internalStatus",
            "affinity": "INTEGER",
            "notNull": true
          },
          {
            "fieldPath": "internalReceiptNumber",
            "columnName": "internalReceiptNumber",
            "affinity": "TEXT",
            "notNull": true
          },
          {
            "fieldPath": "additionalData",
            "columnName": "additionalData",
            "affinity": "TEXT",
            "notNull": false
          },
          {
            "fieldPath": "bonus",
            "columnName": "bonus",
            "affinity": "REAL",
            "notNull": false
          },
          {
            "fieldPath": "businessPartnerCode",
            "columnName": "businessPartnerCode",
            "affinity": "TEXT",
            "notNull": false
          },
          {
            "fieldPath": "businessPartnerName",
            "columnName": "businessPartnerName",
            "affinity": "TEXT",
            "notNull": false
          },
          {
            "fieldPath": "code",
            "columnName": "code",
            "affinity": "TEXT",
            "notNull": false
          },
          {
            "fieldPath": "codeERP",
            "columnName": "codeERP",
            "affinity": "TEXT",
            "notNull": false
          },
          {
            "fieldPath": "comment",
            "columnName": "comment",
            "affinity": "TEXT",
            "notNull": false
          },
          {
            "fieldPath": "createDate",
            "columnName": "createDate",
            "affinity": "TEXT",
            "notNull": false
          },
          {
            "fieldPath": "createUser",
            "columnName": "createUser",
            "affinity": "TEXT",
            "notNull": false
          },
          {
            "fieldPath": "deliveryDate",
            "columnName": "deliveryDate",
            "affinity": "TEXT",
            "notNull": false
          },
          {
            "fieldPath": "detail",
            "columnName": "detail",
            "affinity": "TEXT",
            "notNull": false
          },
          {
            "fieldPath": "detraction",
            "columnName": "detraction",
            "affinity": "INTEGER",
            "notNull": false
          },
          {
            "fieldPath": "discount",
            "columnName": "discount",
            "affinity": "REAL",
            "notNull": false
          },
          {
            "fieldPath": "discountPercentage",
            "columnName": "discountPercentage",
            "affinity": "REAL",
            "notNull": false
          },
          {
            "fieldPath": "docCurrency",
            "columnName": "docCurrency",
            "affinity": "TEXT",
            "notNull": false
          },
          {
            "fieldPath": "docDate",
            "columnName": "docDate",
            "affinity": "TEXT",
            "notNull": false
          },
          {
            "fieldPath": "docNum",
            "columnName": "docNum",
            "affinity": "INTEGER",
            "notNull": false
          },
          {
            "fieldPath": "documentInstallments",
            "columnName": "documentInstallments",
            "affinity": "TEXT",
            "notNull": false
          },
          {
            "fieldPath": "docYear",
            "columnName": "docYear",
            "affinity": "INTEGER",
            "notNull": false
          },
          {
            "fieldPath": "emailSalePerson",
            "columnName": "emailSalePerson",
            "affinity": "TEXT",
            "notNull": false
          },
          {
            "fieldPath": "erpDocNum",
            "columnName": "erpDocNum",
            "affinity": "INTEGER",
            "notNull": false
          },
          {
            "fieldPath": "erpSerialNumber",
            "columnName": "erpSerialNumber",
            "affinity": "INTEGER",
            "notNull": false
          },
          {
            "fieldPath": "icbper",
            "columnName": "icbper",
            "affinity": "REAL",
            "notNull": false
          },
          {
            "fieldPath": "_isDispatch",
            "columnName": "isDispatch",
            "affinity": "INTEGER",
            "notNull": false
          },
          {
            "fieldPath": "migration",
            "columnName": "migration",
            "affinity": "TEXT",
            "notNull": false
          },
          {
            "fieldPath": "migrationDate",
            "columnName": "migrationDate",
            "affinity": "TEXT",
            "notNull": false
          },
          {
            "fieldPath": "migrationStatus",
            "columnName": "migrationStatus",
            "affinity": "INTEGER",
            "notNull": false
          },
          {
            "fieldPath": "nameSalePerson",
            "columnName": "nameSalePerson",
            "affinity": "TEXT",
            "notNull": false
          },
          {
            "fieldPath": "nif",
            "columnName": "nif",
            "affinity": "TEXT",
            "notNull": false
          },
          {
            "fieldPath": "payAddress",
            "columnName": "payAddress",
            "affinity": "TEXT",
            "notNull": false
          },
          {
            "fieldPath": "payAddressName",
            "columnName": "payAddressName",
            "affinity": "TEXT",
            "notNull": false
          },
          {
            "fieldPath": "paymentConditionName",
            "columnName": "paymentConditionName",
            "affinity": "TEXT",
            "notNull": false
          },
          {
            "fieldPath": "paymentReceiptNumber",
            "columnName": "paymentReceiptNumber",
            "affinity": "TEXT",
            "notNull": false
          },
          {
            "fieldPath": "paymentReceiptType",
            "columnName": "paymentReceiptType",
            "affinity": "TEXT",
            "notNull": false
          },
          {
            "fieldPath": "pickUps",
            "columnName": "pickUps",
            "affinity": "TEXT",
            "notNull": false
          },
          {
            "fieldPath": "pickingStatus",
            "columnName": "pickingStatus",
            "affinity": "TEXT",
            "notNull": false
          },
          {
            "fieldPath": "plateNumber",
            "columnName": "plateNumber",
            "affinity": "TEXT",
            "notNull": false
          },
          {
            "fieldPath": "reservationInvoice",
            "columnName": "reservationInvoice",
            "affinity": "TEXT",
            "notNull": false
          },
          {
            "fieldPath": "saleType",
            "columnName": "saleType",
            "affinity": "INTEGER",
            "notNull": false
          },
          {
            "fieldPath": "sampleCode",
            "columnName": "sampleCode",
            "affinity": "TEXT",
            "notNull": false
          },
          {
            "fieldPath": "samples",
            "columnName": "samples",
            "affinity": "TEXT",
            "notNull": false
          },
          {
            "fieldPath": "shipAddress",
            "columnName": "shipAddress",
            "affinity": "TEXT",
            "notNull": false
          },
          {
            "fieldPath": "shipAddressName",
            "columnName": "shipAddressName",
            "affinity": "TEXT",
            "notNull": false
          },
          {
            "fieldPath": "status",
            "columnName": "status",
            "affinity": "INTEGER",
            "notNull": false
          },
          {
            "fieldPath": "store",
            "columnName": "store",
            "affinity": "TEXT",
            "notNull": false
          },
          {
            "fieldPath": "storeAddress",
            "columnName": "storeAddress",
            "affinity": "TEXT",
            "notNull": false
          },
          {
            "fieldPath": "subtotal",
            "columnName": "subtotal",
            "affinity": "REAL",
            "notNull": false
          },
          {
            "fieldPath": "subtotalDiscount",
            "columnName": "subtotalDiscount",
            "affinity": "REAL",
            "notNull": false
          },
          {
            "fieldPath": "taxAmount",
            "columnName": "taxAmount",
            "affinity": "REAL",
            "notNull": false
          },
          {
            "fieldPath": "total",
            "columnName": "total",
            "affinity": "REAL",
            "notNull": false
          },
          {
            "fieldPath": "totalDetraction",
            "columnName": "totalDetraction",
            "affinity": "REAL",
            "notNull": false
          },
          {
            "fieldPath": "transactionalCode",
            "columnName": "transactionalCode",
            "affinity": "TEXT",
            "notNull": false
          },
          {
            "fieldPath": "u_VS_AFEDET",
            "columnName": "u_VS_AFEDET",
            "affinity": "TEXT",
            "notNull": false
          },
          {
            "fieldPath": "u_VS_CODSER",
            "columnName": "u_VS_CODSER",
            "affinity": "TEXT",
            "notNull": false
          },
          {
            "fieldPath": "u_VS_MONDET",
            "columnName": "u_VS_MONDET",
            "affinity": "REAL",
            "notNull": false
          },
          {
            "fieldPath": "u_VS_PORDET",
            "columnName": "u_VS_PORDET",
            "affinity": "REAL",
            "notNull": false
          },
          {
            "fieldPath": "ubication",
            "columnName": "ubication",
            "affinity": "TEXT",
            "notNull": false
          },
          {
            "fieldPath": "ubicationEntry",
            "columnName": "ubicationEntry",
            "affinity": "INTEGER",
            "notNull": false
          },
          {
            "fieldPath": "updateDate",
            "columnName": "updateDate",
            "affinity": "TEXT",
            "notNull": false
          },
          {
            "fieldPath": "updateUser",
            "columnName": "updateUser",
            "affinity": "TEXT",
            "notNull": false
          },
          {
            "fieldPath": "warehouse",
            "columnName": "warehouse",
            "affinity": "TEXT",
            "notNull": false
          }
        ],
        "primaryKey": {
          "columnNames": [
            "internalId"
          ],
          "autoGenerate": true
        },
        "indices": [],
        "foreignKeys": []
      },
      {
        "tableName": "t_affectation",
        "createSql": "CREATE TABLE IF NOT EXISTS `${TABLE_NAME}` (`code` TEXT NOT NULL, `company` TEXT NOT NULL, `createDate` TEXT, `createUser` TEXT, `description` TEXT, `updateDate` TEXT, `updateUser` TEXT, PRIMARY KEY(`code`))",
        "fields": [
          {
            "fieldPath": "code",
            "columnName": "code",
            "affinity": "TEXT",
            "notNull": true
          },
          {
            "fieldPath": "company",
            "columnName": "company",
            "affinity": "TEXT",
            "notNull": true
          },
          {
            "fieldPath": "createDate",
            "columnName": "createDate",
            "affinity": "TEXT",
            "notNull": false
          },
          {
            "fieldPath": "createUser",
            "columnName": "createUser",
            "affinity": "TEXT",
            "notNull": false
          },
          {
            "fieldPath": "description",
            "columnName": "description",
            "affinity": "TEXT",
            "notNull": false
          },
          {
            "fieldPath": "updateDate",
            "columnName": "updateDate",
            "affinity": "TEXT",
            "notNull": false
          },
          {
            "fieldPath": "updateUser",
            "columnName": "updateUser",
            "affinity": "TEXT",
            "notNull": false
          }
        ],
        "primaryKey": {
          "columnNames": [
            "code"
          ],
          "autoGenerate": false
        },
        "indices": [],
        "foreignKeys": []
      },
      {
        "tableName": "t_affectationType",
        "createSql": "CREATE TABLE IF NOT EXISTS `${TABLE_NAME}` (`code` TEXT NOT NULL, `company` TEXT NOT NULL, `createDate` TEXT, `createUser` TEXT, `description` TEXT, `updateDate` TEXT, `updateUser` TEXT, PRIMARY KEY(`code`))",
        "fields": [
          {
            "fieldPath": "code",
            "columnName": "code",
            "affinity": "TEXT",
            "notNull": true
          },
          {
            "fieldPath": "company",
            "columnName": "company",
            "affinity": "TEXT",
            "notNull": true
          },
          {
            "fieldPath": "createDate",
            "columnName": "createDate",
            "affinity": "TEXT",
            "notNull": false
          },
          {
            "fieldPath": "createUser",
            "columnName": "createUser",
            "affinity": "TEXT",
            "notNull": false
          },
          {
            "fieldPath": "description",
            "columnName": "description",
            "affinity": "TEXT",
            "notNull": false
          },
          {
            "fieldPath": "updateDate",
            "columnName": "updateDate",
            "affinity": "TEXT",
            "notNull": false
          },
          {
            "fieldPath": "updateUser",
            "columnName": "updateUser",
            "affinity": "TEXT",
            "notNull": false
          }
        ],
        "primaryKey": {
          "columnNames": [
            "code"
          ],
          "autoGenerate": false
        },
        "indices": [],
        "foreignKeys": []
      },
      {
        "tableName": "t_receiptType",
        "createSql": "CREATE TABLE IF NOT EXISTS `${TABLE_NAME}` (`code` TEXT NOT NULL, `company` TEXT NOT NULL, `codeApplication` TEXT, `logicStatus` INTEGER, `receipt` TEXT, `status` INTEGER, PRIMARY KEY(`code`, `company`))",
        "fields": [
          {
            "fieldPath": "code",
            "columnName": "code",
            "affinity": "TEXT",
            "notNull": true
          },
          {
            "fieldPath": "company",
            "columnName": "company",
            "affinity": "TEXT",
            "notNull": true
          },
          {
            "fieldPath": "codeApplication",
            "columnName": "codeApplication",
            "affinity": "TEXT",
            "notNull": false
          },
          {
            "fieldPath": "logicStatus",
            "columnName": "logicStatus",
            "affinity": "INTEGER",
            "notNull": false
          },
          {
            "fieldPath": "receipt",
            "columnName": "receipt",
            "affinity": "TEXT",
            "notNull": false
          },
          {
            "fieldPath": "status",
            "columnName": "status",
            "affinity": "INTEGER",
            "notNull": false
          }
        ],
        "primaryKey": {
          "columnNames": [
            "code",
            "company"
          ],
          "autoGenerate": false
        },
        "indices": [],
        "foreignKeys": []
      },
      {
        "tableName": "t_parameter",
        "createSql": "CREATE TABLE IF NOT EXISTS `${TABLE_NAME}` (`code` TEXT NOT NULL, `company` TEXT NOT NULL, `application` TEXT, `createDate` TEXT, `description` TEXT, `logicStatus` INTEGER, `name` TEXT, `objectUI` TEXT, `parameterType` TEXT, `status` INTEGER, `updateDate` TEXT, `value` TEXT, PRIMARY KEY(`code`))",
        "fields": [
          {
            "fieldPath": "code",
            "columnName": "code",
            "affinity": "TEXT",
            "notNull": true
          },
          {
            "fieldPath": "company",
            "columnName": "company",
            "affinity": "TEXT",
            "notNull": true
          },
          {
            "fieldPath": "application",
            "columnName": "application",
            "affinity": "TEXT",
            "notNull": false
          },
          {
            "fieldPath": "createDate",
            "columnName": "createDate",
            "affinity": "TEXT",
            "notNull": false
          },
          {
            "fieldPath": "description",
            "columnName": "description",
            "affinity": "TEXT",
            "notNull": false
          },
          {
            "fieldPath": "logicStatus",
            "columnName": "logicStatus",
            "affinity": "INTEGER",
            "notNull": false
          },
          {
            "fieldPath": "name",
            "columnName": "name",
            "affinity": "TEXT",
            "notNull": false
          },
          {
            "fieldPath": "objectUI",
            "columnName": "objectUI",
            "affinity": "TEXT",
            "notNull": false
          },
          {
            "fieldPath": "parameterType",
            "columnName": "parameterType",
            "affinity": "TEXT",
            "notNull": false
          },
          {
            "fieldPath": "status",
            "columnName": "status",
            "affinity": "INTEGER",
            "notNull": false
          },
          {
            "fieldPath": "updateDate",
            "columnName": "updateDate",
            "affinity": "TEXT",
            "notNull": false
          },
          {
            "fieldPath": "value",
            "columnName": "value",
            "affinity": "TEXT",
            "notNull": false
          }
        ],
        "primaryKey": {
          "columnNames": [
            "code"
          ],
          "autoGenerate": false
        },
        "indices": [],
        "foreignKeys": []
      },
      {
        "tableName": "t_visitReason",
        "createSql": "CREATE TABLE IF NOT EXISTS `${TABLE_NAME}` (`code` TEXT NOT NULL, `reason` TEXT NOT NULL, `status` TEXT NOT NULL, PRIMARY KEY(`code`))",
        "fields": [
          {
            "fieldPath": "code",
            "columnName": "code",
            "affinity": "TEXT",
            "notNull": true
          },
          {
            "fieldPath": "reason",
            "columnName": "reason",
            "affinity": "TEXT",
            "notNull": true
          },
          {
            "fieldPath": "status",
            "columnName": "status",
            "affinity": "TEXT",
            "notNull": true
          }
        ],
        "primaryKey": {
          "columnNames": [
            "code"
          ],
          "autoGenerate": false
        },
        "indices": [],
        "foreignKeys": []
      },
      {
        "tableName": "t_zone",
        "createSql": "CREATE TABLE IF NOT EXISTS `${TABLE_NAME}` (`code` TEXT NOT NULL, `createDate` TEXT, `createUser` TEXT, `description` TEXT, `status` INTEGER NOT NULL, `updateDate` TEXT, `updateUser` TEXT, `zone` TEXT NOT NULL, PRIMARY KEY(`code`))",
        "fields": [
          {
            "fieldPath": "code",
            "columnName": "code",
            "affinity": "TEXT",
            "notNull": true
          },
          {
            "fieldPath": "createDate",
            "columnName": "createDate",
            "affinity": "TEXT",
            "notNull": false
          },
          {
            "fieldPath": "createUser",
            "columnName": "createUser",
            "affinity": "TEXT",
            "notNull": false
          },
          {
            "fieldPath": "description",
            "columnName": "description",
            "affinity": "TEXT",
            "notNull": false
          },
          {
            "fieldPath": "status",
            "columnName": "status",
            "affinity": "INTEGER",
            "notNull": true
          },
          {
            "fieldPath": "updateDate",
            "columnName": "updateDate",
            "affinity": "TEXT",
            "notNull": false
          },
          {
            "fieldPath": "updateUser",
            "columnName": "updateUser",
            "affinity": "TEXT",
            "notNull": false
          },
          {
            "fieldPath": "zone",
            "columnName": "zone",
            "affinity": "TEXT",
            "notNull": true
          }
        ],
        "primaryKey": {
          "columnNames": [
            "code"
          ],
          "autoGenerate": false
        },
        "indices": [],
        "foreignKeys": []
      },
      {
        "tableName": "t_zoneUser",
        "createSql": "CREATE TABLE IF NOT EXISTS `${TABLE_NAME}` (`relationCode` TEXT NOT NULL, `createUser` TEXT, `relationCreateDate` TEXT, `relationUpdateDate` TEXT, `status` INTEGER NOT NULL, `updateUser` TEXT, `user` TEXT, PRIMARY KEY(`relationCode`))",
        "fields": [
          {
            "fieldPath": "relationCode",
            "columnName": "relationCode",
            "affinity": "TEXT",
            "notNull": true
          },
          {
            "fieldPath": "createUser",
            "columnName": "createUser",
            "affinity": "TEXT",
            "notNull": false
          },
          {
            "fieldPath": "relationCreateDate",
            "columnName": "relationCreateDate",
            "affinity": "TEXT",
            "notNull": false
          },
          {
            "fieldPath": "relationUpdateDate",
            "columnName": "relationUpdateDate",
            "affinity": "TEXT",
            "notNull": false
          },
          {
            "fieldPath": "status",
            "columnName": "status",
            "affinity": "INTEGER",
            "notNull": true
          },
          {
            "fieldPath": "updateUser",
            "columnName": "updateUser",
            "affinity": "TEXT",
            "notNull": false
          },
          {
            "fieldPath": "user",
            "columnName": "user",
            "affinity": "TEXT",
            "notNull": false
          }
        ],
        "primaryKey": {
          "columnNames": [
            "relationCode"
          ],
          "autoGenerate": false
        },
        "indices": [],
        "foreignKeys": []
      },
      {
        "tableName": "t_zoneWareHouse",
        "createSql": "CREATE TABLE IF NOT EXISTS `${TABLE_NAME}` (`relationCode` TEXT NOT NULL, `createUser` TEXT, `relationCreateDate` TEXT, `relationUpdateDate` TEXT, `status` INTEGER NOT NULL, `updateUser` TEXT, `warehouse` TEXT NOT NULL, PRIMARY KEY(`relationCode`))",
        "fields": [
          {
            "fieldPath": "relationCode",
            "columnName": "relationCode",
            "affinity": "TEXT",
            "notNull": true
          },
          {
            "fieldPath": "createUser",
            "columnName": "createUser",
            "affinity": "TEXT",
            "notNull": false
          },
          {
            "fieldPath": "relationCreateDate",
            "columnName": "relationCreateDate",
            "affinity": "TEXT",
            "notNull": false
          },
          {
            "fieldPath": "relationUpdateDate",
            "columnName": "relationUpdateDate",
            "affinity": "TEXT",
            "notNull": false
          },
          {
            "fieldPath": "status",
            "columnName": "status",
            "affinity": "INTEGER",
            "notNull": true
          },
          {
            "fieldPath": "updateUser",
            "columnName": "updateUser",
            "affinity": "TEXT",
            "notNull": false
          },
          {
            "fieldPath": "warehouse",
            "columnName": "warehouse",
            "affinity": "TEXT",
            "notNull": true
          }
        ],
        "primaryKey": {
          "columnNames": [
            "relationCode"
          ],
          "autoGenerate": false
        },
        "indices": [],
        "foreignKeys": []
      },
      {
        "tableName": "t_tax",
        "createSql": "CREATE TABLE IF NOT EXISTS `${TABLE_NAME}` (`code` TEXT NOT NULL, `company` TEXT NOT NULL, `createDate` TEXT, `createUser` TEXT, `logicStatus` INTEGER NOT NULL, `rate` REAL NOT NULL, `status` INTEGER NOT NULL, `tax` TEXT NOT NULL, `updateDate` TEXT, `updateUser` TEXT, PRIMARY KEY(`code`, `company`))",
        "fields": [
          {
            "fieldPath": "code",
            "columnName": "code",
            "affinity": "TEXT",
            "notNull": true
          },
          {
            "fieldPath": "company",
            "columnName": "company",
            "affinity": "TEXT",
            "notNull": true
          },
          {
            "fieldPath": "createDate",
            "columnName": "createDate",
            "affinity": "TEXT",
            "notNull": false
          },
          {
            "fieldPath": "createUser",
            "columnName": "createUser",
            "affinity": "TEXT",
            "notNull": false
          },
          {
            "fieldPath": "logicStatus",
            "columnName": "logicStatus",
            "affinity": "INTEGER",
            "notNull": true
          },
          {
            "fieldPath": "rate",
            "columnName": "rate",
            "affinity": "REAL",
            "notNull": true
          },
          {
            "fieldPath": "status",
            "columnName": "status",
            "affinity": "INTEGER",
            "notNull": true
          },
          {
            "fieldPath": "tax",
            "columnName": "tax",
            "affinity": "TEXT",
            "notNull": true
          },
          {
            "fieldPath": "updateDate",
            "columnName": "updateDate",
            "affinity": "TEXT",
            "notNull": false
          },
          {
            "fieldPath": "updateUser",
            "columnName": "updateUser",
            "affinity": "TEXT",
            "notNull": false
          }
        ],
        "primaryKey": {
          "columnNames": [
            "code",
            "company"
          ],
          "autoGenerate": false
        },
        "indices": [],
        "foreignKeys": []
      },
      {
        "tableName": "t_currency",
        "createSql": "CREATE TABLE IF NOT EXISTS `${TABLE_NAME}` (`code` TEXT NOT NULL, `company` TEXT NOT NULL, `createDate` TEXT, `createUser` TEXT, `description` TEXT, `isDefault` INTEGER NOT NULL, `name` TEXT NOT NULL, `status` INTEGER NOT NULL, `symbol` TEXT NOT NULL, `updateDate` TEXT, `updateUser` TEXT, PRIMARY KEY(`code`, `company`))",
        "fields": [
          {
            "fieldPath": "code",
            "columnName": "code",
            "affinity": "TEXT",
            "notNull": true
          },
          {
            "fieldPath": "company",
            "columnName": "company",
            "affinity": "TEXT",
            "notNull": true
          },
          {
            "fieldPath": "createDate",
            "columnName": "createDate",
            "affinity": "TEXT",
            "notNull": false
          },
          {
            "fieldPath": "createUser",
            "columnName": "createUser",
            "affinity": "TEXT",
            "notNull": false
          },
          {
            "fieldPath": "description",
            "columnName": "description",
            "affinity": "TEXT",
            "notNull": false
          },
          {
            "fieldPath": "_isDefault",
            "columnName": "isDefault",
            "affinity": "INTEGER",
            "notNull": true
          },
          {
            "fieldPath": "name",
            "columnName": "name",
            "affinity": "TEXT",
            "notNull": true
          },
          {
            "fieldPath": "status",
            "columnName": "status",
            "affinity": "INTEGER",
            "notNull": true
          },
          {
            "fieldPath": "symbol",
            "columnName": "symbol",
            "affinity": "TEXT",
            "notNull": true
          },
          {
            "fieldPath": "updateDate",
            "columnName": "updateDate",
            "affinity": "TEXT",
            "notNull": false
          },
          {
            "fieldPath": "updateUser",
            "columnName": "updateUser",
            "affinity": "TEXT",
            "notNull": false
          }
        ],
        "primaryKey": {
          "columnNames": [
            "code",
            "company"
          ],
          "autoGenerate": false
        },
        "indices": [],
        "foreignKeys": []
      },
      {
        "tableName": "t_paymentConditions",
        "createSql": "CREATE TABLE IF NOT EXISTS `${TABLE_NAME}` (`code` TEXT NOT NULL, `company` TEXT NOT NULL, `createDate` TEXT, `createUser` TEXT, `creditLimit` REAL NOT NULL, `generalDiscount` REAL NOT NULL, `groupNumber` INTEGER NOT NULL, `interestOnArrears` REAL NOT NULL, `loadLimit` REAL NOT NULL, `numberOfAdditionalDays` INTEGER NOT NULL, `numberOfAdditionalMonths` INTEGER NOT NULL, `numberOfToleranceDays` INTEGER NOT NULL, `paymentTermsGroupName` TEXT, `priceListNo` INTEGER NOT NULL, `type` INTEGER NOT NULL, `updateDate` TEXT, `updateUser` TEXT, PRIMARY KEY(`code`))",
        "fields": [
          {
            "fieldPath": "code",
            "columnName": "code",
            "affinity": "TEXT",
            "notNull": true
          },
          {
            "fieldPath": "company",
            "columnName": "company",
            "affinity": "TEXT",
            "notNull": true
          },
          {
            "fieldPath": "createDate",
            "columnName": "createDate",
            "affinity": "TEXT",
            "notNull": false
          },
          {
            "fieldPath": "createUser",
            "columnName": "createUser",
            "affinity": "TEXT",
            "notNull": false
          },
          {
            "fieldPath": "creditLimit",
            "columnName": "creditLimit",
            "affinity": "REAL",
            "notNull": true
          },
          {
            "fieldPath": "generalDiscount",
            "columnName": "generalDiscount",
            "affinity": "REAL",
            "notNull": true
          },
          {
            "fieldPath": "groupNumber",
            "columnName": "groupNumber",
            "affinity": "INTEGER",
            "notNull": true
          },
          {
            "fieldPath": "interestOnArrears",
            "columnName": "interestOnArrears",
            "affinity": "REAL",
            "notNull": true
          },
          {
            "fieldPath": "loadLimit",
            "columnName": "loadLimit",
            "affinity": "REAL",
            "notNull": true
          },
          {
            "fieldPath": "numberOfAdditionalDays",
            "columnName": "numberOfAdditionalDays",
            "affinity": "INTEGER",
            "notNull": true
          },
          {
            "fieldPath": "numberOfAdditionalMonths",
            "columnName": "numberOfAdditionalMonths",
            "affinity": "INTEGER",
            "notNull": true
          },
          {
            "fieldPath": "numberOfToleranceDays",
            "columnName": "numberOfToleranceDays",
            "affinity": "INTEGER",
            "notNull": true
          },
          {
            "fieldPath": "paymentTermsGroupName",
            "columnName": "paymentTermsGroupName",
            "affinity": "TEXT",
            "notNull": false
          },
          {
            "fieldPath": "priceListNo",
            "columnName": "priceListNo",
            "affinity": "INTEGER",
            "notNull": true
          },
          {
            "fieldPath": "type",
            "columnName": "type",
            "affinity": "INTEGER",
            "notNull": true
          },
          {
            "fieldPath": "updateDate",
            "columnName": "updateDate",
            "affinity": "TEXT",
            "notNull": false
          },
          {
            "fieldPath": "updateUser",
            "columnName": "updateUser",
            "affinity": "TEXT",
            "notNull": false
          }
        ],
        "primaryKey": {
          "columnNames": [
            "code"
          ],
          "autoGenerate": false
        },
        "indices": [],
        "foreignKeys": []
      },
      {
        "tableName": "t_warehouse",
        "createSql": "CREATE TABLE IF NOT EXISTS `${TABLE_NAME}` (`code` TEXT NOT NULL, `company` TEXT NOT NULL, `address` TEXT, `description` TEXT, `distributionList` TEXT, `logicStatus` INTEGER, `name` TEXT, `status` INTEGER, `store` TEXT, PRIMARY KEY(`code`, `company`))",
        "fields": [
          {
            "fieldPath": "code",
            "columnName": "code",
            "affinity": "TEXT",
            "notNull": true
          },
          {
            "fieldPath": "company",
            "columnName": "company",
            "affinity": "TEXT",
            "notNull": true
          },
          {
            "fieldPath": "address",
            "columnName": "address",
            "affinity": "TEXT",
            "notNull": false
          },
          {
            "fieldPath": "description",
            "columnName": "description",
            "affinity": "TEXT",
            "notNull": false
          },
          {
            "fieldPath": "distributionList",
            "columnName": "distributionList",
            "affinity": "TEXT",
            "notNull": false
          },
          {
            "fieldPath": "logicStatus",
            "columnName": "logicStatus",
            "affinity": "INTEGER",
            "notNull": false
          },
          {
            "fieldPath": "name",
            "columnName": "name",
            "affinity": "TEXT",
            "notNull": false
          },
          {
            "fieldPath": "status",
            "columnName": "status",
            "affinity": "INTEGER",
            "notNull": false
          },
          {
            "fieldPath": "store",
            "columnName": "store",
            "affinity": "TEXT",
            "notNull": false
          }
        ],
        "primaryKey": {
          "columnNames": [
            "code",
            "company"
          ],
          "autoGenerate": false
        },
        "indices": [],
        "foreignKeys": []
      },
      {
        "tableName": "t_ubication",
        "createSql": "CREATE TABLE IF NOT EXISTS `${TABLE_NAME}` (`code` TEXT NOT NULL, `company` TEXT NOT NULL, `createDate` TEXT, `createUser` TEXT, `entry` INTEGER, `isSale` INTEGER, `logicStatus` INTEGER, `name` TEXT, `status` INTEGER, `type` TEXT, `updateDate` TEXT, `updateUser` TEXT, `warehouse` TEXT, PRIMARY KEY(`code`, `company`))",
        "fields": [
          {
            "fieldPath": "code",
            "columnName": "code",
            "affinity": "TEXT",
            "notNull": true
          },
          {
            "fieldPath": "company",
            "columnName": "company",
            "affinity": "TEXT",
            "notNull": true
          },
          {
            "fieldPath": "createDate",
            "columnName": "createDate",
            "affinity": "TEXT",
            "notNull": false
          },
          {
            "fieldPath": "createUser",
            "columnName": "createUser",
            "affinity": "TEXT",
            "notNull": false
          },
          {
            "fieldPath": "entry",
            "columnName": "entry",
            "affinity": "INTEGER",
            "notNull": false
          },
          {
            "fieldPath": "_isSale",
            "columnName": "isSale",
            "affinity": "INTEGER",
            "notNull": false
          },
          {
            "fieldPath": "logicStatus",
            "columnName": "logicStatus",
            "affinity": "INTEGER",
            "notNull": false
          },
          {
            "fieldPath": "name",
            "columnName": "name",
            "affinity": "TEXT",
            "notNull": false
          },
          {
            "fieldPath": "status",
            "columnName": "status",
            "affinity": "INTEGER",
            "notNull": false
          },
          {
            "fieldPath": "type",
            "columnName": "type",
            "affinity": "TEXT",
            "notNull": false
          },
          {
            "fieldPath": "updateDate",
            "columnName": "updateDate",
            "affinity": "TEXT",
            "notNull": false
          },
          {
            "fieldPath": "updateUser",
            "columnName": "updateUser",
            "affinity": "TEXT",
            "notNull": false
          },
          {
            "fieldPath": "warehouse",
            "columnName": "warehouse",
            "affinity": "TEXT",
            "notNull": false
          }
        ],
        "primaryKey": {
          "columnNames": [
            "code",
            "company"
          ],
          "autoGenerate": false
        },
        "indices": [],
        "foreignKeys": []
      },
      {
        "tableName": "t_item",
        "createSql": "CREATE TABLE IF NOT EXISTS `${TABLE_NAME}` (`code` TEXT NOT NULL, `company` TEXT NOT NULL, `barCode` TEXT, `color` TEXT, `createDate` TEXT, `createUser` TEXT, `inventoryItem` INTEGER, `inventoryUnit` TEXT, `isbn` TEXT, `logicStatus` INTEGER, `name` TEXT, `pricingUnit` INTEGER, `projectName` TEXT, `salesItem` INTEGER, `salesItemsPerUnit` REAL, `salesUnit` TEXT, `size` TEXT, `status` INTEGER, `taxCode` TEXT, `type` TEXT, `u_VS_AFEDET` TEXT, `u_VS_CODDET` TEXT, `u_VS_PORDET` REAL, `unitGroupEntry` INTEGER, `updateDate` TEXT, `updateUser` TEXT, `weight` REAL, PRIMARY KEY(`code`, `company`))",
        "fields": [
          {
            "fieldPath": "code",
            "columnName": "code",
            "affinity": "TEXT",
            "notNull": true
          },
          {
            "fieldPath": "company",
            "columnName": "company",
            "affinity": "TEXT",
            "notNull": true
          },
          {
            "fieldPath": "barCode",
            "columnName": "barCode",
            "affinity": "TEXT",
            "notNull": false
          },
          {
            "fieldPath": "color",
            "columnName": "color",
            "affinity": "TEXT",
            "notNull": false
          },
          {
            "fieldPath": "createDate",
            "columnName": "createDate",
            "affinity": "TEXT",
            "notNull": false
          },
          {
            "fieldPath": "createUser",
            "columnName": "createUser",
            "affinity": "TEXT",
            "notNull": false
          },
          {
            "fieldPath": "inventoryItem",
            "columnName": "inventoryItem",
            "affinity": "INTEGER",
            "notNull": false
          },
          {
            "fieldPath": "inventoryUnit",
            "columnName": "inventoryUnit",
            "affinity": "TEXT",
            "notNull": false
          },
          {
            "fieldPath": "isbn",
            "columnName": "isbn",
            "affinity": "TEXT",
            "notNull": false
          },
          {
            "fieldPath": "logicStatus",
            "columnName": "logicStatus",
            "affinity": "INTEGER",
            "notNull": false
          },
          {
            "fieldPath": "name",
            "columnName": "name",
            "affinity": "TEXT",
            "notNull": false
          },
          {
            "fieldPath": "pricingUnit",
            "columnName": "pricingUnit",
            "affinity": "INTEGER",
            "notNull": false
          },
          {
            "fieldPath": "projectName",
            "columnName": "projectName",
            "affinity": "TEXT",
            "notNull": false
          },
          {
            "fieldPath": "salesItem",
            "columnName": "salesItem",
            "affinity": "INTEGER",
            "notNull": false
          },
          {
            "fieldPath": "salesItemsPerUnit",
            "columnName": "salesItemsPerUnit",
            "affinity": "REAL",
            "notNull": false
          },
          {
            "fieldPath": "salesUnit",
            "columnName": "salesUnit",
            "affinity": "TEXT",
            "notNull": false
          },
          {
            "fieldPath": "size",
            "columnName": "size",
            "affinity": "TEXT",
            "notNull": false
          },
          {
            "fieldPath": "status",
            "columnName": "status",
            "affinity": "INTEGER",
            "notNull": false
          },
          {
            "fieldPath": "taxCode",
            "columnName": "taxCode",
            "affinity": "TEXT",
            "notNull": false
          },
          {
            "fieldPath": "type",
            "columnName": "type",
            "affinity": "TEXT",
            "notNull": false
          },
          {
            "fieldPath": "u_VS_AFEDET",
            "columnName": "u_VS_AFEDET",
            "affinity": "TEXT",
            "notNull": false
          },
          {
            "fieldPath": "u_VS_CODDET",
            "columnName": "u_VS_CODDET",
            "affinity": "TEXT",
            "notNull": false
          },
          {
            "fieldPath": "u_VS_PORDET",
            "columnName": "u_VS_PORDET",
            "affinity": "REAL",
            "notNull": false
          },
          {
            "fieldPath": "unitGroupEntry",
            "columnName": "unitGroupEntry",
            "affinity": "INTEGER",
            "notNull": false
          },
          {
            "fieldPath": "updateDate",
            "columnName": "updateDate",
            "affinity": "TEXT",
            "notNull": false
          },
          {
            "fieldPath": "updateUser",
            "columnName": "updateUser",
            "affinity": "TEXT",
            "notNull": false
          },
          {
            "fieldPath": "weight",
            "columnName": "weight",
            "affinity": "REAL",
            "notNull": false
          }
        ],
        "primaryKey": {
          "columnNames": [
            "code",
            "company"
          ],
          "autoGenerate": false
        },
        "indices": [],
        "foreignKeys": []
      },
      {
        "tableName": "t_whsKardex",
        "createSql": "CREATE TABLE IF NOT EXISTS `${TABLE_NAME}` (`warehouse` TEXT NOT NULL, `itemEntity` TEXT NOT NULL, `company` TEXT NOT NULL, `logicStatus` INTEGER, `stock` REAL NOT NULL, `stockCommitted` REAL NOT NULL, `stockDisponible` REAL NOT NULL, `stockNoForSale` REAL NOT NULL, `stockRequested` REAL NOT NULL, `store` TEXT, PRIMARY KEY(`warehouse`, `itemEntity`, `company`))",
        "fields": [
          {
            "fieldPath": "warehouse",
            "columnName": "warehouse",
            "affinity": "TEXT",
            "notNull": true
          },
          {
            "fieldPath": "itemEntity",
            "columnName": "itemEntity",
            "affinity": "TEXT",
            "notNull": true
          },
          {
            "fieldPath": "company",
            "columnName": "company",
            "affinity": "TEXT",
            "notNull": true
          },
          {
            "fieldPath": "logicStatus",
            "columnName": "logicStatus",
            "affinity": "INTEGER",
            "notNull": false
          },
          {
            "fieldPath": "stock",
            "columnName": "stock",
            "affinity": "REAL",
            "notNull": true
          },
          {
            "fieldPath": "stockCommitted",
            "columnName": "stockCommitted",
            "affinity": "REAL",
            "notNull": true
          },
          {
            "fieldPath": "stockDisponible",
            "columnName": "stockDisponible",
            "affinity": "REAL",
            "notNull": true
          },
          {
            "fieldPath": "stockNoForSale",
            "columnName": "stockNoForSale",
            "affinity": "REAL",
            "notNull": true
          },
          {
            "fieldPath": "stockRequested",
            "columnName": "stockRequested",
            "affinity": "REAL",
            "notNull": true
          },
          {
            "fieldPath": "store",
            "columnName": "store",
            "affinity": "TEXT",
            "notNull": false
          }
        ],
        "primaryKey": {
          "columnNames": [
            "warehouse",
            "itemEntity",
            "company"
          ],
          "autoGenerate": false
        },
        "indices": [],
        "foreignKeys": []
      },
      {
        "tableName": "t_kardex",
        "createSql": "CREATE TABLE IF NOT EXISTS `${TABLE_NAME}` (`ubication` TEXT NOT NULL, `createDate` TEXT, `createUser` TEXT, `item` TEXT NOT NULL, `company` TEXT NOT NULL, `logicStatus` INTEGER NOT NULL, `status` INTEGER NOT NULL, `stock` REAL NOT NULL, `stockCommitted` REAL NOT NULL, `stockRequest` REAL NOT NULL, `store` TEXT, `ubicationEntry` INTEGER NOT NULL, `updateDate` TEXT, `updateUser` TEXT, `warehouse` TEXT NOT NULL, PRIMARY KEY(`ubication`, `item`, `company`))",
        "fields": [
          {
            "fieldPath": "ubication",
            "columnName": "ubication",
            "affinity": "TEXT",
            "notNull": true
          },
          {
            "fieldPath": "createDate",
            "columnName": "createDate",
            "affinity": "TEXT",
            "notNull": false
          },
          {
            "fieldPath": "createUser",
            "columnName": "createUser",
            "affinity": "TEXT",
            "notNull": false
          },
          {
            "fieldPath": "item",
            "columnName": "item",
            "affinity": "TEXT",
            "notNull": true
          },
          {
            "fieldPath": "company",
            "columnName": "company",
            "affinity": "TEXT",
            "notNull": true
          },
          {
            "fieldPath": "logicStatus",
            "columnName": "logicStatus",
            "affinity": "INTEGER",
            "notNull": true
          },
          {
            "fieldPath": "status",
            "columnName": "status",
            "affinity": "INTEGER",
            "notNull": true
          },
          {
            "fieldPath": "stock",
            "columnName": "stock",
            "affinity": "REAL",
            "notNull": true
          },
          {
            "fieldPath": "stockCommitted",
            "columnName": "stockCommitted",
            "affinity": "REAL",
            "notNull": true
          },
          {
            "fieldPath": "stockRequest",
            "columnName": "stockRequest",
            "affinity": "REAL",
            "notNull": true
          },
          {
            "fieldPath": "store",
            "columnName": "store",
            "affinity": "TEXT",
            "notNull": false
          },
          {
            "fieldPath": "ubicationEntry",
            "columnName": "ubicationEntry",
            "affinity": "INTEGER",
            "notNull": true
          },
          {
            "fieldPath": "updateDate",
            "columnName": "updateDate",
            "affinity": "TEXT",
            "notNull": false
          },
          {
            "fieldPath": "updateUser",
            "columnName": "updateUser",
            "affinity": "TEXT",
            "notNull": false
          },
          {
            "fieldPath": "warehouse",
            "columnName": "warehouse",
            "affinity": "TEXT",
            "notNull": true
          }
        ],
        "primaryKey": {
          "columnNames": [
            "ubication",
            "item",
            "company"
          ],
          "autoGenerate": false
        },
        "indices": [],
        "foreignKeys": []
      },
      {
        "tableName": "t_priceListDetail",
        "createSql": "CREATE TABLE IF NOT EXISTS `${TABLE_NAME}` (`priceList` INTEGER NOT NULL, `applyTax` INTEGER, `createDate` TEXT, `createUser` TEXT, `currency` TEXT, `grossPrice` REAL, `item` TEXT NOT NULL, `company` TEXT NOT NULL, `logicStatus` INTEGER, `priceListName` TEXT, `priceListType` TEXT, `status` INTEGER, `store` TEXT, `tax` TEXT, `taxPercentage` REAL, `unitMSR` TEXT, `unitMSREntry` INTEGER, `unitMSRName` TEXT, `unitPrice` REAL, `updateDate` TEXT, `updateUser` TEXT, PRIMARY KEY(`priceList`, `item`, `company`))",
        "fields": [
          {
            "fieldPath": "priceList",
            "columnName": "priceList",
            "affinity": "INTEGER",
            "notNull": true
          },
          {
            "fieldPath": "applyTax",
            "columnName": "applyTax",
            "affinity": "INTEGER",
            "notNull": false
          },
          {
            "fieldPath": "createDate",
            "columnName": "createDate",
            "affinity": "TEXT",
            "notNull": false
          },
          {
            "fieldPath": "createUser",
            "columnName": "createUser",
            "affinity": "TEXT",
            "notNull": false
          },
          {
            "fieldPath": "currency",
            "columnName": "currency",
            "affinity": "TEXT",
            "notNull": false
          },
          {
            "fieldPath": "grossPrice",
            "columnName": "grossPrice",
            "affinity": "REAL",
            "notNull": false
          },
          {
            "fieldPath": "item",
            "columnName": "item",
            "affinity": "TEXT",
            "notNull": true
          },
          {
            "fieldPath": "company",
            "columnName": "company",
            "affinity": "TEXT",
            "notNull": true
          },
          {
            "fieldPath": "logicStatus",
            "columnName": "logicStatus",
            "affinity": "INTEGER",
            "notNull": false
          },
          {
            "fieldPath": "priceListName",
            "columnName": "priceListName",
            "affinity": "TEXT",
            "notNull": false
          },
          {
            "fieldPath": "priceListType",
            "columnName": "priceListType",
            "affinity": "TEXT",
            "notNull": false
          },
          {
            "fieldPath": "status",
            "columnName": "status",
            "affinity": "INTEGER",
            "notNull": false
          },
          {
            "fieldPath": "store",
            "columnName": "store",
            "affinity": "TEXT",
            "notNull": false
          },
          {
            "fieldPath": "tax",
            "columnName": "tax",
            "affinity": "TEXT",
            "notNull": false
          },
          {
            "fieldPath": "taxPercentage",
            "columnName": "taxPercentage",
            "affinity": "REAL",
            "notNull": false
          },
          {
            "fieldPath": "unitMSR",
            "columnName": "unitMSR",
            "affinity": "TEXT",
            "notNull": false
          },
          {
            "fieldPath": "unitMSREntry",
            "columnName": "unitMSREntry",
            "affinity": "INTEGER",
            "notNull": false
          },
          {
            "fieldPath": "unitMSRName",
            "columnName": "unitMSRName",
            "affinity": "TEXT",
            "notNull": false
          },
          {
            "fieldPath": "unitPrice",
            "columnName": "unitPrice",
            "affinity": "REAL",
            "notNull": false
          },
          {
            "fieldPath": "updateDate",
            "columnName": "updateDate",
            "affinity": "TEXT",
            "notNull": false
          },
          {
            "fieldPath": "updateUser",
            "columnName": "updateUser",
            "affinity": "TEXT",
            "notNull": false
          }
        ],
        "primaryKey": {
          "columnNames": [
            "priceList",
            "item",
            "company"
          ],
          "autoGenerate": false
        },
        "indices": [],
        "foreignKeys": []
      },
      {
        "tableName": "t_priceList",
        "createSql": "CREATE TABLE IF NOT EXISTS `${TABLE_NAME}` (`code` INTEGER NOT NULL, `company` TEXT NOT NULL, `createDate` TEXT, `createUser` TEXT, `currency` TEXT, `description` TEXT, `item` TEXT, `logicStatus` INTEGER, `name` TEXT, `price` REAL, `status` INTEGER, `type` TEXT, `updateDate` TEXT, `updateUser` TEXT, PRIMARY KEY(`code`, `company`))",
        "fields": [
          {
            "fieldPath": "code",
            "columnName": "code",
            "affinity": "INTEGER",
            "notNull": true
          },
          {
            "fieldPath": "company",
            "columnName": "company",
            "affinity": "TEXT",
            "notNull": true
          },
          {
            "fieldPath": "createDate",
            "columnName": "createDate",
            "affinity": "TEXT",
            "notNull": false
          },
          {
            "fieldPath": "createUser",
            "columnName": "createUser",
            "affinity": "TEXT",
            "notNull": false
          },
          {
            "fieldPath": "currency",
            "columnName": "currency",
            "affinity": "TEXT",
            "notNull": false
          },
          {
            "fieldPath": "description",
            "columnName": "description",
            "affinity": "TEXT",
            "notNull": false
          },
          {
            "fieldPath": "item",
            "columnName": "item",
            "affinity": "TEXT",
            "notNull": false
          },
          {
            "fieldPath": "logicStatus",
            "columnName": "logicStatus",
            "affinity": "INTEGER",
            "notNull": false
          },
          {
            "fieldPath": "name",
            "columnName": "name",
            "affinity": "TEXT",
            "notNull": false
          },
          {
            "fieldPath": "price",
            "columnName": "price",
            "affinity": "REAL",
            "notNull": false
          },
          {
            "fieldPath": "status",
            "columnName": "status",
            "affinity": "INTEGER",
            "notNull": false
          },
          {
            "fieldPath": "type",
            "columnName": "type",
            "affinity": "TEXT",
            "notNull": false
          },
          {
            "fieldPath": "updateDate",
            "columnName": "updateDate",
            "affinity": "TEXT",
            "notNull": false
          },
          {
            "fieldPath": "updateUser",
            "columnName": "updateUser",
            "affinity": "TEXT",
            "notNull": false
          }
        ],
        "primaryKey": {
          "columnNames": [
            "code",
            "company"
          ],
          "autoGenerate": false
        },
        "indices": [],
        "foreignKeys": []
      },
      {
        "tableName": "t_rateStore",
        "createSql": "CREATE TABLE IF NOT EXISTS `${TABLE_NAME}` (`code` TEXT NOT NULL, `company` TEXT NOT NULL, `createDate` TEXT, `currencyFrom` TEXT, `currencyTo` TEXT, `rate` REAL NOT NULL, `rateDate` TEXT, `status` INTEGER NOT NULL, `store` TEXT, PRIMARY KEY(`code`, `company`))",
        "fields": [
          {
            "fieldPath": "code",
            "columnName": "code",
            "affinity": "TEXT",
            "notNull": true
          },
          {
            "fieldPath": "company",
            "columnName": "company",
            "affinity": "TEXT",
            "notNull": true
          },
          {
            "fieldPath": "createDate",
            "columnName": "createDate",
            "affinity": "TEXT",
            "notNull": false
          },
          {
            "fieldPath": "currencyFrom",
            "columnName": "currencyFrom",
            "affinity": "TEXT",
            "notNull": false
          },
          {
            "fieldPath": "currencyTo",
            "columnName": "currencyTo",
            "affinity": "TEXT",
            "notNull": false
          },
          {
            "fieldPath": "rate",
            "columnName": "rate",
            "affinity": "REAL",
            "notNull": true
          },
          {
            "fieldPath": "rateDate",
            "columnName": "rateDate",
            "affinity": "TEXT",
            "notNull": false
          },
          {
            "fieldPath": "status",
            "columnName": "status",
            "affinity": "INTEGER",
            "notNull": true
          },
          {
            "fieldPath": "store",
            "columnName": "store",
            "affinity": "TEXT",
            "notNull": false
          }
        ],
        "primaryKey": {
          "columnNames": [
            "code",
            "company"
          ],
          "autoGenerate": false
        },
        "indices": [],
        "foreignKeys": []
      },
      {
        "tableName": "t_businessPartner",
        "createSql": "CREATE TABLE IF NOT EXISTS `${TABLE_NAME}` (`code` TEXT NOT NULL, `company` TEXT NOT NULL, `alternativeEmail` TEXT, `balanceSys` REAL, `businessName` TEXT, `comment` TEXT, `commercialName` TEXT, `createDate` TEXT, `createUser` TEXT, `creditBalance` REAL, `creditLine` REAL, `currency` TEXT, `email` TEXT, `hasBusiness` TEXT, `lastNameF` TEXT, `lastNameM` TEXT, `logicStatus` INTEGER, `migration` TEXT, `migrationDate` TEXT, `migrationMessage` TEXT, `migrationStatus` INTEGER, `names` TEXT, `nif` TEXT, `partnerType` TEXT, `paymentCondition` INTEGER, `personType` INTEGER, `phoneNumber` TEXT, `priceList` TEXT, `recordType` INTEGER, `sunatAffectationType` TEXT, `sunatOneroso` TEXT, `sunatOperation` TEXT, `sunatOperationType` TEXT, `updateDate` TEXT, `updateUser` TEXT, PRIMARY KEY(`code`, `company`))",
        "fields": [
          {
            "fieldPath": "code",
            "columnName": "code",
            "affinity": "TEXT",
            "notNull": true
          },
          {
            "fieldPath": "company",
            "columnName": "company",
            "affinity": "TEXT",
            "notNull": true
          },
          {
            "fieldPath": "alternativeEmail",
            "columnName": "alternativeEmail",
            "affinity": "TEXT",
            "notNull": false
          },
          {
            "fieldPath": "balanceSys",
            "columnName": "balanceSys",
            "affinity": "REAL",
            "notNull": false
          },
          {
            "fieldPath": "businessName",
            "columnName": "businessName",
            "affinity": "TEXT",
            "notNull": false
          },
          {
            "fieldPath": "comment",
            "columnName": "comment",
            "affinity": "TEXT",
            "notNull": false
          },
          {
            "fieldPath": "commercialName",
            "columnName": "commercialName",
            "affinity": "TEXT",
            "notNull": false
          },
          {
            "fieldPath": "createDate",
            "columnName": "createDate",
            "affinity": "TEXT",
            "notNull": false
          },
          {
            "fieldPath": "createUser",
            "columnName": "createUser",
            "affinity": "TEXT",
            "notNull": false
          },
          {
            "fieldPath": "creditBalance",
            "columnName": "creditBalance",
            "affinity": "REAL",
            "notNull": false
          },
          {
            "fieldPath": "creditLine",
            "columnName": "creditLine",
            "affinity": "REAL",
            "notNull": false
          },
          {
            "fieldPath": "currency",
            "columnName": "currency",
            "affinity": "TEXT",
            "notNull": false
          },
          {
            "fieldPath": "email",
            "columnName": "email",
            "affinity": "TEXT",
            "notNull": false
          },
          {
            "fieldPath": "hasBusiness",
            "columnName": "hasBusiness",
            "affinity": "TEXT",
            "notNull": false
          },
          {
            "fieldPath": "lastNameF",
            "columnName": "lastNameF",
            "affinity": "TEXT",
            "notNull": false
          },
          {
            "fieldPath": "lastNameM",
            "columnName": "lastNameM",
            "affinity": "TEXT",
            "notNull": false
          },
          {
            "fieldPath": "logicStatus",
            "columnName": "logicStatus",
            "affinity": "INTEGER",
            "notNull": false
          },
          {
            "fieldPath": "migration",
            "columnName": "migration",
            "affinity": "TEXT",
            "notNull": false
          },
          {
            "fieldPath": "migrationDate",
            "columnName": "migrationDate",
            "affinity": "TEXT",
            "notNull": false
          },
          {
            "fieldPath": "migrationMessage",
            "columnName": "migrationMessage",
            "affinity": "TEXT",
            "notNull": false
          },
          {
            "fieldPath": "migrationStatus",
            "columnName": "migrationStatus",
            "affinity": "INTEGER",
            "notNull": false
          },
          {
            "fieldPath": "names",
            "columnName": "names",
            "affinity": "TEXT",
            "notNull": false
          },
          {
            "fieldPath": "nif",
            "columnName": "nif",
            "affinity": "TEXT",
            "notNull": false
          },
          {
            "fieldPath": "partnerType",
            "columnName": "partnerType",
            "affinity": "TEXT",
            "notNull": false
          },
          {
            "fieldPath": "paymentCondition",
            "columnName": "paymentCondition",
            "affinity": "INTEGER",
            "notNull": false
          },
          {
            "fieldPath": "personType",
            "columnName": "personType",
            "affinity": "INTEGER",
            "notNull": false
          },
          {
            "fieldPath": "phoneNumber",
            "columnName": "phoneNumber",
            "affinity": "TEXT",
            "notNull": false
          },
          {
            "fieldPath": "priceList",
            "columnName": "priceList",
            "affinity": "TEXT",
            "notNull": false
          },
          {
            "fieldPath": "recordType",
            "columnName": "recordType",
            "affinity": "INTEGER",
            "notNull": false
          },
          {
            "fieldPath": "sunatAffectationType",
            "columnName": "sunatAffectationType",
            "affinity": "TEXT",
            "notNull": false
          },
          {
            "fieldPath": "sunatOneroso",
            "columnName": "sunatOneroso",
            "affinity": "TEXT",
            "notNull": false
          },
          {
            "fieldPath": "sunatOperation",
            "columnName": "sunatOperation",
            "affinity": "TEXT",
            "notNull": false
          },
          {
            "fieldPath": "sunatOperationType",
            "columnName": "sunatOperationType",
            "affinity": "TEXT",
            "notNull": false
          },
          {
            "fieldPath": "updateDate",
            "columnName": "updateDate",
            "affinity": "TEXT",
            "notNull": false
          },
          {
            "fieldPath": "updateUser",
            "columnName": "updateUser",
            "affinity": "TEXT",
            "notNull": false
          }
        ],
        "primaryKey": {
          "columnNames": [
            "code",
            "company"
          ],
          "autoGenerate": false
        },
        "indices": [],
        "foreignKeys": []
      },
      {
        "tableName": "t_businessPartnerAddress",
        "createSql": "CREATE TABLE IF NOT EXISTS `${TABLE_NAME}` (`codeBusinessPartner` TEXT NOT NULL, `company` TEXT NOT NULL, `address` TEXT, `addressName` TEXT, `country` TEXT, `createDate` TEXT, `department` TEXT, `district` TEXT, `invoicesCountry` TEXT, `logicStatus` INTEGER, `province` TEXT, `rowNum` INTEGER, `status` INTEGER, `type` TEXT NOT NULL, `ubiquitous` TEXT, PRIMARY KEY(`codeBusinessPartner`, `company`, `type`))",
        "fields": [
          {
            "fieldPath": "codeBusinessPartner",
            "columnName": "codeBusinessPartner",
            "affinity": "TEXT",
            "notNull": true
          },
          {
            "fieldPath": "company",
            "columnName": "company",
            "affinity": "TEXT",
            "notNull": true
          },
          {
            "fieldPath": "address",
            "columnName": "address",
            "affinity": "TEXT",
            "notNull": false
          },
          {
            "fieldPath": "addressName",
            "columnName": "addressName",
            "affinity": "TEXT",
            "notNull": false
          },
          {
            "fieldPath": "country",
            "columnName": "country",
            "affinity": "TEXT",
            "notNull": false
          },
          {
            "fieldPath": "createDate",
            "columnName": "createDate",
            "affinity": "TEXT",
            "notNull": false
          },
          {
            "fieldPath": "department",
            "columnName": "department",
            "affinity": "TEXT",
            "notNull": false
          },
          {
            "fieldPath": "district",
            "columnName": "district",
            "affinity": "TEXT",
            "notNull": false
          },
          {
            "fieldPath": "invoicesCountry",
            "columnName": "invoicesCountry",
            "affinity": "TEXT",
            "notNull": false
          },
          {
            "fieldPath": "logicStatus",
            "columnName": "logicStatus",
            "affinity": "INTEGER",
            "notNull": false
          },
          {
            "fieldPath": "province",
            "columnName": "province",
            "affinity": "TEXT",
            "notNull": false
          },
          {
            "fieldPath": "rowNum",
            "columnName": "rowNum",
            "affinity": "INTEGER",
            "notNull": false
          },
          {
            "fieldPath": "status",
            "columnName": "status",
            "affinity": "INTEGER",
            "notNull": false
          },
          {
            "fieldPath": "type",
            "columnName": "type",
            "affinity": "TEXT",
            "notNull": true
          },
          {
            "fieldPath": "ubiquitous",
            "columnName": "ubiquitous",
            "affinity": "TEXT",
            "notNull": false
          }
        ],
        "primaryKey": {
          "columnNames": [
            "codeBusinessPartner",
            "company",
            "type"
          ],
          "autoGenerate": false
        },
        "indices": [],
        "foreignKeys": []
      },
      {
        "tableName": "t_contactPerson",
        "createSql": "CREATE TABLE IF NOT EXISTS `${TABLE_NAME}` (`code` TEXT NOT NULL, `address` TEXT, `cellPhoneNumber` TEXT, `email` TEXT, `name` TEXT, `phone` TEXT, `relationship` TEXT, PRIMARY KEY(`code`))",
        "fields": [
          {
            "fieldPath": "code",
            "columnName": "code",
            "affinity": "TEXT",
            "notNull": true
          },
          {
            "fieldPath": "address",
            "columnName": "address",
            "affinity": "TEXT",
            "notNull": false
          },
          {
            "fieldPath": "cellPhoneNumber",
            "columnName": "cellPhoneNumber",
            "affinity": "TEXT",
            "notNull": false
          },
          {
            "fieldPath": "email",
            "columnName": "email",
            "affinity": "TEXT",
            "notNull": false
          },
          {
            "fieldPath": "name",
            "columnName": "name",
            "affinity": "TEXT",
            "notNull": false
          },
          {
            "fieldPath": "phone",
            "columnName": "phone",
            "affinity": "TEXT",
            "notNull": false
          },
          {
            "fieldPath": "relationship",
            "columnName": "relationship",
            "affinity": "TEXT",
            "notNull": false
          }
        ],
        "primaryKey": {
          "columnNames": [
            "code"
          ],
          "autoGenerate": false
        },
        "indices": [],
        "foreignKeys": []
      },
      {
        "tableName": "t_region",
        "createSql": "CREATE TABLE IF NOT EXISTS `${TABLE_NAME}` (`identifier` TEXT NOT NULL, `code` TEXT, `concatCode` TEXT, `country` TEXT, `region` TEXT, `regionType` TEXT, PRIMARY KEY(`identifier`))",
        "fields": [
          {
            "fieldPath": "identifier",
            "columnName": "identifier",
            "affinity": "TEXT",
            "notNull": true
          },
          {
            "fieldPath": "code",
            "columnName": "code",
            "affinity": "TEXT",
            "notNull": false
          },
          {
            "fieldPath": "concatCode",
            "columnName": "concatCode",
            "affinity": "TEXT",
            "notNull": false
          },
          {
            "fieldPath": "country",
            "columnName": "country",
            "affinity": "TEXT",
            "notNull": false
          },
          {
            "fieldPath": "region",
            "columnName": "region",
            "affinity": "TEXT",
            "notNull": false
          },
          {
            "fieldPath": "regionType",
            "columnName": "regionType",
            "affinity": "TEXT",
            "notNull": false
          }
        ],
        "primaryKey": {
          "columnNames": [
            "identifier"
          ],
          "autoGenerate": false
        },
        "indices": [],
        "foreignKeys": []
      },
      {
        "tableName": "t_regionRelation",
        "createSql": "CREATE TABLE IF NOT EXISTS `${TABLE_NAME}` (`childrenRegion` TEXT NOT NULL, `country` TEXT NOT NULL, `parentRegion` TEXT NOT NULL, `active` INTEGER, PRIMARY KEY(`childrenRegion`))",
        "fields": [
          {
            "fieldPath": "childrenRegion",
            "columnName": "childrenRegion",
            "affinity": "TEXT",
            "notNull": true
          },
          {
            "fieldPath": "country",
            "columnName": "country",
            "affinity": "TEXT",
            "notNull": true
          },
          {
            "fieldPath": "parentRegion",
            "columnName": "parentRegion",
            "affinity": "TEXT",
            "notNull": true
          },
          {
            "fieldPath": "active",
            "columnName": "active",
            "affinity": "INTEGER",
            "notNull": false
          }
        ],
        "primaryKey": {
          "columnNames": [
            "childrenRegion"
          ],
          "autoGenerate": false
        },
        "indices": [],
        "foreignKeys": []
      },
      {
        "tableName": "t_cashRegisterInfo",
        "createSql": "CREATE TABLE IF NOT EXISTS `${TABLE_NAME}` (`code` TEXT NOT NULL, `company` TEXT NOT NULL, `user` TEXT NOT NULL, `assigned` INTEGER, `name` TEXT NOT NULL, `status` INTEGER, `type` TEXT, `openingCreationUser` TEXT, PRIMARY KEY(`code`, `company`, `user`))",
        "fields": [
          {
            "fieldPath": "code",
            "columnName": "code",
            "affinity": "TEXT",
            "notNull": true
          },
          {
            "fieldPath": "company",
            "columnName": "company",
            "affinity": "TEXT",
            "notNull": true
          },
          {
            "fieldPath": "user",
            "columnName": "user",
            "affinity": "TEXT",
            "notNull": true
          },
          {
            "fieldPath": "assigned",
            "columnName": "assigned",
            "affinity": "INTEGER",
            "notNull": false
          },
          {
            "fieldPath": "name",
            "columnName": "name",
            "affinity": "TEXT",
            "notNull": true
          },
          {
            "fieldPath": "status",
            "columnName": "status",
            "affinity": "INTEGER",
            "notNull": false
          },
          {
            "fieldPath": "type",
            "columnName": "type",
            "affinity": "TEXT",
            "notNull": false
          },
          {
            "fieldPath": "openingCreationUser",
            "columnName": "openingCreationUser",
            "affinity": "TEXT",
            "notNull": false
          }
        ],
        "primaryKey": {
          "columnNames": [
            "code",
            "company",
            "user"
          ],
          "autoGenerate": false
        },
        "indices": [],
        "foreignKeys": []
      },
      {
        "tableName": "t_correlative",
        "createSql": "CREATE TABLE IF NOT EXISTS `${TABLE_NAME}` (`id` TEXT NOT NULL, `company` TEXT NOT NULL, `cashRegisterCode` TEXT NOT NULL, `actualNumeration` INTEGER NOT NULL, `endNumeration` INTEGER NOT NULL, `initialNumeration` INTEGER, `modified` INTEGER, `numerationLength` INTEGER, `parentReceiptType` TEXT, `receiptTypeCode` TEXT NOT NULL, `series` TEXT, `status` INTEGER, `storeCode` TEXT, `version` INTEGER, PRIMARY KEY(`id`, `company`, `cashRegisterCode`))",
        "fields": [
          {
            "fieldPath": "id",
            "columnName": "id",
            "affinity": "TEXT",
            "notNull": true
          },
          {
            "fieldPath": "company",
            "columnName": "company",
            "affinity": "TEXT",
            "notNull": true
          },
          {
            "fieldPath": "cashRegisterCode",
            "columnName": "cashRegisterCode",
            "affinity": "TEXT",
            "notNull": true
          },
          {
            "fieldPath": "actualNumeration",
            "columnName": "actualNumeration",
            "affinity": "INTEGER",
            "notNull": true
          },
          {
            "fieldPath": "endNumeration",
            "columnName": "endNumeration",
            "affinity": "INTEGER",
            "notNull": true
          },
          {
            "fieldPath": "initialNumeration",
            "columnName": "initialNumeration",
            "affinity": "INTEGER",
            "notNull": false
          },
          {
            "fieldPath": "modified",
            "columnName": "modified",
            "affinity": "INTEGER",
            "notNull": false
          },
          {
            "fieldPath": "numerationLength",
            "columnName": "numerationLength",
            "affinity": "INTEGER",
            "notNull": false
          },
          {
            "fieldPath": "parentReceiptType",
            "columnName": "parentReceiptType",
            "affinity": "TEXT",
            "notNull": false
          },
          {
            "fieldPath": "receiptTypeCode",
            "columnName": "receiptTypeCode",
            "affinity": "TEXT",
            "notNull": true
          },
          {
            "fieldPath": "series",
            "columnName": "series",
            "affinity": "TEXT",
            "notNull": false
          },
          {
            "fieldPath": "status",
            "columnName": "status",
            "affinity": "INTEGER",
            "notNull": false
          },
          {
            "fieldPath": "storeCode",
            "columnName": "storeCode",
            "affinity": "TEXT",
            "notNull": false
          },
          {
            "fieldPath": "version",
            "columnName": "version",
            "affinity": "INTEGER",
            "notNull": false
          }
        ],
        "primaryKey": {
          "columnNames": [
            "id",
            "company",
            "cashRegisterCode"
          ],
          "autoGenerate": false
        },
        "indices": [],
        "foreignKeys": []
      },
      {
        "tableName": "t_paymentWay",
        "createSql": "CREATE TABLE IF NOT EXISTS `${TABLE_NAME}` (`company` TEXT NOT NULL, `store` TEXT NOT NULL, `paymentWayBody` TEXT NOT NULL, PRIMARY KEY(`company`, `store`))",
        "fields": [
          {
            "fieldPath": "company",
            "columnName": "company",
            "affinity": "TEXT",
            "notNull": true
          },
          {
            "fieldPath": "store",
            "columnName": "store",
            "affinity": "TEXT",
            "notNull": true
          },
          {
            "fieldPath": "paymentWayBody",
            "columnName": "paymentWayBody",
            "affinity": "TEXT",
            "notNull": true
          }
        ],
        "primaryKey": {
          "columnNames": [
            "company",
            "store"
          ],
          "autoGenerate": false
        },
        "indices": [],
        "foreignKeys": []
      },
      {
        "tableName": "t_paymentReceipt",
        "createSql": "CREATE TABLE IF NOT EXISTS `${TABLE_NAME}` (`internalId` INTEGER PRIMARY KEY AUTOINCREMENT, `saleOrderId` INTEGER, `company` TEXT NOT NULL, `internalStatus` INTEGER NOT NULL, `businessName` TEXT, `code` TEXT, `createDate` TEXT, `credit` REAL, `currency` TEXT, `nif` TEXT, `paymentReceiptNumber` TEXT, `payment` TEXT, `status` INTEGER, `total` REAL)",
        "fields": [
          {
            "fieldPath": "internalId",
            "columnName": "internalId",
            "affinity": "INTEGER",
            "notNull": false
          },
          {
            "fieldPath": "saleOrderId",
            "columnName": "saleOrderId",
            "affinity": "INTEGER",
            "notNull": false
          },
          {
            "fieldPath": "company",
            "columnName": "company",
            "affinity": "TEXT",
            "notNull": true
          },
          {
            "fieldPath": "internalStatus",
            "columnName": "internalStatus",
            "affinity": "INTEGER",
            "notNull": true
          },
          {
            "fieldPath": "businessName",
            "columnName": "businessName",
            "affinity": "TEXT",
            "notNull": false
          },
          {
            "fieldPath": "code",
            "columnName": "code",
            "affinity": "TEXT",
            "notNull": false
          },
          {
            "fieldPath": "createDate",
            "columnName": "createDate",
            "affinity": "TEXT",
            "notNull": false
          },
          {
            "fieldPath": "credit",
            "columnName": "credit",
            "affinity": "REAL",
            "notNull": false
          },
          {
            "fieldPath": "currency",
            "columnName": "currency",
            "affinity": "TEXT",
            "notNull": false
          },
          {
            "fieldPath": "nif",
            "columnName": "nif",
            "affinity": "TEXT",
            "notNull": false
          },
          {
            "fieldPath": "paymentReceiptNumber",
            "columnName": "paymentReceiptNumber",
            "affinity": "TEXT",
            "notNull": false
          },
          {
            "fieldPath": "payment",
            "columnName": "payment",
            "affinity": "TEXT",
            "notNull": false
          },
          {
            "fieldPath": "status",
            "columnName": "status",
            "affinity": "INTEGER",
            "notNull": false
          },
          {
            "fieldPath": "total",
            "columnName": "total",
            "affinity": "REAL",
            "notNull": false
          }
        ],
        "primaryKey": {
          "columnNames": [
            "internalId"
          ],
          "autoGenerate": true
        },
        "indices": [],
        "foreignKeys": []
      }
    ],
    "views": [],
    "setupQueries": [
      "CREATE TABLE IF NOT EXISTS room_master_table (id INTEGER PRIMARY KEY,identity_hash TEXT)",
      "INSERT OR REPLACE INTO room_master_table (id,identity_hash) VALUES(42, '9004461bb8edf8b97cf3d294f6967eac')"
    ]
  }
}